 {
	"title": "WaleA3",
	"author": {
		"name": "Adewale Adeyemi",
		"link": "http://walea3.com/"
	},
	"meta": {
		"description": "",
		"keywords": ""
	},
	"mega-nav" : [
		{
			"link-title" : "Our group",
			"link-url" : "#",
			"sub-class" : "row sub-nav",
			"items" : [
				{
					"item-class" : "col-xs-12 col-sm-9 col-md-9",
					"sub-class" : "sub-sub-nav",
					"heading-text" : "An overview of the group",
					"items" : [
						{
							"item-class" : "col-xs-12 col-sm-4 col-md-4",
							"sub-class" : "sub-sub-nav",
							"link-title" : "Responsible business",
							"link-url" : "#",
							"items" : [
								{
									"sub-class" : "sub-sub-nav",
									"link-title" : "Reports",
									"link-url" : "#",
									"items" : [
										{
											"link-title" : "Lorem ipsum dolor 1",
											"link-url" : "#"
										},
										{
											"link-title" : "Lorem ipsum dolor 2",
											"link-url" : "#"
										},
										{
											"link-title" : "Lorem ipsum dolor 3",
											"link-url" : "#"
										},
										{
											"link-title" : "Lorem ipsum dolor 4",
											"link-url" : "#"
										}
									]
								},
								{
									"link-title" : "Environments",
									"link-url" : "#"
								},
								{
									"link-title" : "Policies &amp; Codes",
									"link-url" : "#"
								},
								{
									"link-title" : "Helping Britian Prosper",
									"link-url" : "#"
								},
								{
									"link-title" : "Community Investment",
									"link-url" : "#"
								},
								{
									"link-title" : "Doing More",
									"link-url" : "#"
								}
							]
						},
						{
							"item-class" : "col-xs-12 col-sm-4 col-md-4",
							"link-title" : "Corporate governance",
							"link-url" : "#",
							"items" : [
								{
									"link-title" : "Roles",
									"link-url" : "#"
								},
								{
									"link-title" : "Committees",
									"link-url" : "#"
								},
								{
									"link-title" : "Memoranda &amp; Articles of Association",
									"link-url" : "#"
								}
							]
						},
						{
							"item-class" : "col-xs-12 col-sm-4 col-md-4",
							"link-title" : "Our heritage",
							"link-url" : "#",
							"items" : [
								{
									"link-title" : "Timeline",
									"link-url" : "#"
								},
								{
									"link-title" : "Our Firsts",
									"link-url" : "#"
								},
								{
									"link-title" : "The Story",
									"link-url" : "#"
								}
							]
						},
						{
							"item-class" : "col-xs-12 col-sm-4 col-md-4",
							"link-title" : "Complaints",
							"link-url" : "#"
						},
						{
							"item-class" : "col-xs-12 col-sm-4 col-md-4",
							"link-title" : "Group overview",
							"link-url" : "#"
						},
						{
							"item-class" : "col-xs-12 col-sm-4 col-md-4",
							"link-title" : "Directors",
							"link-url" : "#"
						},
						{
							"item-class" : "col-xs-12 col-sm-4 col-md-4",
							"link-title" : "Contact us",
							"link-url" : "#"
						}
					]
				},
				{
					"item-class" : "col-xs-12 col-sm-3 col-md-3",
					"right-sec" : [
						{
							"img-src" : "img/sample/nav-content-img.jpg",
							"img-alt" : "Image placeholder",
							"link-title" : "SME Business advice",
							"link-url" : "#",
							"sec-body" : "<p>Lorem ipsum dolor sit amet, consectetur adipiscing elit. Fusce ut risus ante.</p>"
						}
					]
				}
			]
		},
		{
			"link-title" : "Our purpose",
			"link-url" : "#",
			"sub-class" : "row sub-nav",
			"items" : [
				{
					"item-class" : "col-xs-12 col-sm-9 col-md-9",
					"sub-class" : "sub-sub-nav",
					"heading-text" : "Our purpose",
					"items" : [
						{
							"item-class" : "col-xs-12 col-sm-4 col-md-4",
							"sub-class" : "sub-sub-nav",
							"link-title" : "Lorem ipsum",
							"link-url" : "#",
							"items" : [
								{
									"sub-class" : "sub-sub-nav",
									"link-title" : "Lorem ipsum",
									"link-url" : "#",
									"items" : [
										{
											"link-title" : "Lorem ipsum dolor 1",
											"link-url" : "#"
										},
										{
											"link-title" : "Lorem ipsum dolor 2",
											"link-url" : "#"
										},
										{
											"link-title" : "Lorem ipsum dolor 3",
											"link-url" : "#"
										},
										{
											"link-title" : "Lorem ipsum dolor 4",
											"link-url" : "#"
										}
									]
								},
								{
									"link-title" : "Lorem ipsum",
									"link-url" : "#"
								},
								{
									"link-title" : "Lorem ipsum",
									"link-url" : "#"
								},
								{
									"link-title" : "Lorem ipsum",
									"link-url" : "#"
								}
							]
						}
					]
				}
			]
		},
		{
			"link-title" : "Our brands",
			"link-url" : "#",
			"sub-class" : "row sub-nav",
			"items" : [
				{
					"item-class" : "col-xs-12 col-sm-9 col-md-9",
					"sub-class" : "sub-sub-nav",
					"heading-text" : "Our brands",
					"items" : [
						{
							"item-class" : "col-xs-12 col-sm-4 col-md-4",
							"sub-class" : "sub-sub-nav",
							"link-title" : "Lorem ipsum",
							"link-url" : "#",
							"items" : [
								{
									"sub-class" : "sub-sub-nav",
									"link-title" : "Lorem ipsum",
									"link-url" : "#",
									"items" : [
										{
											"link-title" : "Lorem ipsum dolor 1",
											"link-url" : "#"
										},
										{
											"link-title" : "Lorem ipsum dolor 2",
											"link-url" : "#"
										},
										{
											"link-title" : "Lorem ipsum dolor 3",
											"link-url" : "#"
										},
										{
											"link-title" : "Lorem ipsum dolor 4",
											"link-url" : "#"
										}
									]
								},
								{
									"link-title" : "Lorem ipsum",
									"link-url" : "#"
								},
								{
									"link-title" : "Lorem ipsum",
									"link-url" : "#"
								},
								{
									"link-title" : "Lorem ipsum",
									"link-url" : "#"
								}
							]
						}
					]
				}
			]
		},
		{
			"link-title" : "Investors &amp; performance",
			"link-url" : "#",
			"sub-class" : "row sub-nav",
			"items" : [
				{
					"item-class" : "col-xs-12 col-sm-9 col-md-9",
					"sub-class" : "sub-sub-nav",
					"heading-text" : "Investors &amp; performance",
					"items" : [
						{
							"item-class" : "col-xs-12 col-sm-4 col-md-4",
							"sub-class" : "sub-sub-nav",
							"link-title" : "Lorem ipsum",
							"link-url" : "#",
							"items" : [
								{
									"sub-class" : "sub-sub-nav",
									"link-title" : "Lorem ipsum",
									"link-url" : "#",
									"items" : [
										{
											"link-title" : "Lorem ipsum dolor 1",
											"link-url" : "#"
										},
										{
											"link-title" : "Lorem ipsum dolor 2",
											"link-url" : "#"
										},
										{
											"link-title" : "Lorem ipsum dolor 3",
											"link-url" : "#"
										},
										{
											"link-title" : "Lorem ipsum dolor 4",
											"link-url" : "#"
										}
									]
								},
								{
									"link-title" : "Lorem ipsum",
									"link-url" : "#"
								},
								{
									"link-title" : "Lorem ipsum",
									"link-url" : "#"
								},
								{
									"link-title" : "Lorem ipsum",
									"link-url" : "#"
								}
							]
						}
					]
				}
			]
		},
		{
			"link-title" : "Media &amp; resource centre",
			"link-url" : "#",
			"sub-class" : "row sub-nav",
			"items" : [
				{
					"item-class" : "col-xs-12 col-sm-9 col-md-9",
					"sub-class" : "sub-sub-nav",
					"heading-text" : "Media &amp; resource centre",
					"items" : [
						{
							"item-class" : "col-xs-12 col-sm-4 col-md-4",
							"sub-class" : "sub-sub-nav",
							"link-title" : "Lorem ipsum",
							"link-url" : "#",
							"items" : [
								{
									"sub-class" : "sub-sub-nav",
									"link-title" : "Lorem ipsum",
									"link-url" : "#",
									"items" : [
										{
											"link-title" : "Lorem ipsum dolor 1",
											"link-url" : "#"
										},
										{
											"link-title" : "Lorem ipsum dolor 2",
											"link-url" : "#"
										},
										{
											"link-title" : "Lorem ipsum dolor 3",
											"link-url" : "#"
										},
										{
											"link-title" : "Lorem ipsum dolor 4",
											"link-url" : "#"
										}
									]
								},
								{
									"link-title" : "Lorem ipsum",
									"link-url" : "#"
								},
								{
									"link-title" : "Lorem ipsum",
									"link-url" : "#"
								},
								{
									"link-title" : "Lorem ipsum",
									"link-url" : "#"
								}
							]
						}
					]
				}
			]
		},
		{
			"link-title" : "Careers",
			"link-url" : "#",
			"sub-class" : "row sub-nav",
			"items" : [
				{
					"item-class" : "col-xs-12 col-sm-9 col-md-9",
					"sub-class" : "sub-sub-nav",
					"heading-text" : "Careers",
					"items" : [
						{
							"item-class" : "col-xs-12 col-sm-4 col-md-4",
							"sub-class" : "sub-sub-nav",
							"link-title" : "Lorem ipsum",
							"link-url" : "#",
							"items" : [
								{
									"sub-class" : "sub-sub-nav",
									"link-title" : "Lorem ipsum",
									"link-url" : "#",
									"items" : [
										{
											"link-title" : "Lorem ipsum dolor 1",
											"link-url" : "#"
										},
										{
											"link-title" : "Lorem ipsum dolor 2",
											"link-url" : "#"
										},
										{
											"link-title" : "Lorem ipsum dolor 3",
											"link-url" : "#"
										},
										{
											"link-title" : "Lorem ipsum dolor 4",
											"link-url" : "#"
										}
									]
								},
								{
									"link-title" : "Lorem ipsum",
									"link-url" : "#"
								},
								{
									"link-title" : "Lorem ipsum",
									"link-url" : "#"
								},
								{
									"link-title" : "Lorem ipsum",
									"link-url" : "#"
								}
							]
						}
					]
				}
			]
		}
	],
	"right-nav" : [
		{
			"item-class" : "col-xs-12 col-sm-4 col-md-4",
			"link-title" : "Responsible business",
			"link-url" : "#",
			"items" : [
				{
					"item-class" : "active",
					"link-title" : "Reports",
					"link-url" : "#",
					"items" : [
						{
							"link-title" : "Lorem ipsum dolor 1",
							"link-url" : "#"
						},
						{
							"link-title" : "Lorem ipsum dolor 2",
							"link-url" : "#"
						},
						{
							"link-title" : "Lorem ipsum dolor 3",
							"link-url" : "#"
						},
						{
							"link-title" : "Lorem ipsum dolor 4",
							"link-url" : "#"
						}
					]
				},
				{
					"link-title" : "Environments",
					"link-url" : "#"
				},
				{
					"link-title" : "Policies &amp; Codes",
					"link-url" : "#"
				},
				{
					"link-title" : "Helping Britian Prosper",
					"link-url" : "#"
				},
				{
					"link-title" : "Community Investment",
					"link-url" : "#"
				},
				{
					"link-title" : "Doing More",
					"link-url" : "#"
				}
			]
		}
	]
}